{
	"Module": {
		"Path": "bitbucket.org/atlassianlabs/restclient"
	},
	"Require": [
		{
			"Path": "github.com/davecgh/go-spew",
			"Version": "v1.1.1",
			"Indirect": true
		},
		{
			"Path": "github.com/pkg/errors",
			"Version": "v0.8.0"
		},
		{
			"Path": "github.com/pmezard/go-difflib",
			"Version": "v1.0.0",
			"Indirect": true
		},
		{
			"Path": "github.com/stretchr/testify",
			"Version": "v1.2.2"
		}
	],
	"Exclude": null,
	"Replace": null,
	"Retract": null
}
