{
	"Module": {
		"Path": "git.sr.ht/~sircmpwn/getopt"
	},
	"Require": [
		{
			"Path": "github.com/stretchr/testify",
			"Version": "v1.3.0"
		}
	],
	"Exclude": null,
	"Replace": null,
	"Retract": null
}
